simulation/qsim/HillCipher.msim.vcd
$comment
	File created using the following command:
		vcd file HillCipher.msim.vcd -direction
$end
$date
	Tue Jan 12 11:51:42 2016
$end
$version
	ModelSim Version 10.1d
$end
$timescale
	1ps
$end
$scope module key_loader_struct_vlg_vec_tst $end
$var reg 1 ! clk $end
$var reg 1 " load_key $end
$var reg 4 # p1 [3:0] $end
$var reg 4 $ p2 [3:0] $end
$var reg 4 % p3 [3:0] $end
$var wire 1 & k11 [3] $end
$var wire 1 ' k11 [2] $end
$var wire 1 ( k11 [1] $end
$var wire 1 ) k11 [0] $end
$var wire 1 * k12 [3] $end
$var wire 1 + k12 [2] $end
$var wire 1 , k12 [1] $end
$var wire 1 - k12 [0] $end
$var wire 1 . k13 [3] $end
$var wire 1 / k13 [2] $end
$var wire 1 0 k13 [1] $end
$var wire 1 1 k13 [0] $end
$var wire 1 2 k21 [3] $end
$var wire 1 3 k21 [2] $end
$var wire 1 4 k21 [1] $end
$var wire 1 5 k21 [0] $end
$var wire 1 6 k22 [3] $end
$var wire 1 7 k22 [2] $end
$var wire 1 8 k22 [1] $end
$var wire 1 9 k22 [0] $end
$var wire 1 : k23 [3] $end
$var wire 1 ; k23 [2] $end
$var wire 1 < k23 [1] $end
$var wire 1 = k23 [0] $end
$var wire 1 > k31 [3] $end
$var wire 1 ? k31 [2] $end
$var wire 1 @ k31 [1] $end
$var wire 1 A k31 [0] $end
$var wire 1 B k32 [3] $end
$var wire 1 C k32 [2] $end
$var wire 1 D k32 [1] $end
$var wire 1 E k32 [0] $end
$var wire 1 F k33 [3] $end
$var wire 1 G k33 [2] $end
$var wire 1 H k33 [1] $end
$var wire 1 I k33 [0] $end
$var wire 1 J sampler $end
$scope module i1 $end
$var wire 1 K gnd $end
$var wire 1 L vcc $end
$var wire 1 M unknown $end
$var tri1 1 N devclrn $end
$var tri1 1 O devpor $end
$var tri1 1 P devoe $end
$var wire 1 Q clk~combout $end
$var wire 1 R clk~clkctrl_outclk $end
$var wire 1 S k13_lpm_ff|dffs[0]~feeder_combout $end
$var wire 1 T load_key~combout $end
$var wire 1 U k12_lpm_ff|dffs[0]~feeder_combout $end
$var wire 1 V k11_lpm_ff|dffs[0]~feeder_combout $end
$var wire 1 W k12_lpm_ff|dffs[1]~feeder_combout $end
$var wire 1 X k11_lpm_ff|dffs[1]~feeder_combout $end
$var wire 1 Y k13_lpm_ff|dffs[2]~feeder_combout $end
$var wire 1 Z k12_lpm_ff|dffs[2]~feeder_combout $end
$var wire 1 [ k13_lpm_ff|dffs[3]~feeder_combout $end
$var wire 1 \ k12_lpm_ff|dffs[3]~feeder_combout $end
$var wire 1 ] k11_lpm_ff|dffs[3]~feeder_combout $end
$var wire 1 ^ k23_lpm_ff|dffs[0]~feeder_combout $end
$var wire 1 _ k22_lpm_ff|dffs[0]~feeder_combout $end
$var wire 1 ` k21_lpm_ff|dffs[0]~feeder_combout $end
$var wire 1 a k23_lpm_ff|dffs[1]~feeder_combout $end
$var wire 1 b k22_lpm_ff|dffs[1]~feeder_combout $end
$var wire 1 c k21_lpm_ff|dffs[1]~feeder_combout $end
$var wire 1 d k23_lpm_ff|dffs[2]~feeder_combout $end
$var wire 1 e k21_lpm_ff|dffs[2]~feeder_combout $end
$var wire 1 f k23_lpm_ff|dffs[3]~feeder_combout $end
$var wire 1 g k22_lpm_ff|dffs[3]~feeder_combout $end
$var wire 1 h k21_lpm_ff|dffs[3]~feeder_combout $end
$var wire 1 i k33_lpm_ff|dffs[0]~feeder_combout $end
$var wire 1 j k32_lpm_ff|dffs[0]~feeder_combout $end
$var wire 1 k k33_lpm_ff|dffs[1]~feeder_combout $end
$var wire 1 l k32_lpm_ff|dffs[1]~feeder_combout $end
$var wire 1 m k31_lpm_ff|dffs[1]~feeder_combout $end
$var wire 1 n k33_lpm_ff|dffs[2]~feeder_combout $end
$var wire 1 o k32_lpm_ff|dffs[2]~feeder_combout $end
$var wire 1 p k31_lpm_ff|dffs[2]~feeder_combout $end
$var wire 1 q k33_lpm_ff|dffs[3]~feeder_combout $end
$var wire 1 r k32_lpm_ff|dffs[3]~feeder_combout $end
$var wire 1 s k31_lpm_ff|dffs[3]~feeder_combout $end
$var wire 1 t k21_lpm_ff|dffs [3] $end
$var wire 1 u k21_lpm_ff|dffs [2] $end
$var wire 1 v k21_lpm_ff|dffs [1] $end
$var wire 1 w k21_lpm_ff|dffs [0] $end
$var wire 1 x k31_lpm_ff|dffs [3] $end
$var wire 1 y k31_lpm_ff|dffs [2] $end
$var wire 1 z k31_lpm_ff|dffs [1] $end
$var wire 1 { k31_lpm_ff|dffs [0] $end
$var wire 1 | k33_lpm_ff|dffs [3] $end
$var wire 1 } k33_lpm_ff|dffs [2] $end
$var wire 1 ~ k33_lpm_ff|dffs [1] $end
$var wire 1 !! k33_lpm_ff|dffs [0] $end
$var wire 1 "! p2~combout [3] $end
$var wire 1 #! p2~combout [2] $end
$var wire 1 $! p2~combout [1] $end
$var wire 1 %! p2~combout [0] $end
$var wire 1 &! k32_lpm_ff|dffs [3] $end
$var wire 1 '! k32_lpm_ff|dffs [2] $end
$var wire 1 (! k32_lpm_ff|dffs [1] $end
$var wire 1 )! k32_lpm_ff|dffs [0] $end
$var wire 1 *! k23_lpm_ff|dffs [3] $end
$var wire 1 +! k23_lpm_ff|dffs [2] $end
$var wire 1 ,! k23_lpm_ff|dffs [1] $end
$var wire 1 -! k23_lpm_ff|dffs [0] $end
$var wire 1 .! p3~combout [3] $end
$var wire 1 /! p3~combout [2] $end
$var wire 1 0! p3~combout [1] $end
$var wire 1 1! p3~combout [0] $end
$var wire 1 2! k11_lpm_ff|dffs [3] $end
$var wire 1 3! k11_lpm_ff|dffs [2] $end
$var wire 1 4! k11_lpm_ff|dffs [1] $end
$var wire 1 5! k11_lpm_ff|dffs [0] $end
$var wire 1 6! k12_lpm_ff|dffs [3] $end
$var wire 1 7! k12_lpm_ff|dffs [2] $end
$var wire 1 8! k12_lpm_ff|dffs [1] $end
$var wire 1 9! k12_lpm_ff|dffs [0] $end
$var wire 1 :! k22_lpm_ff|dffs [3] $end
$var wire 1 ;! k22_lpm_ff|dffs [2] $end
$var wire 1 <! k22_lpm_ff|dffs [1] $end
$var wire 1 =! k22_lpm_ff|dffs [0] $end
$var wire 1 >! k13_lpm_ff|dffs [3] $end
$var wire 1 ?! k13_lpm_ff|dffs [2] $end
$var wire 1 @! k13_lpm_ff|dffs [1] $end
$var wire 1 A! k13_lpm_ff|dffs [0] $end
$var wire 1 B! p1~combout [3] $end
$var wire 1 C! p1~combout [2] $end
$var wire 1 D! p1~combout [1] $end
$var wire 1 E! p1~combout [0] $end
$upscope $end
$upscope $end
$enddefinitions $end
#0
$dumpvars
0!
0"
b0 #
b0 $
b0 %
x)
x(
x'
x&
x-
x,
x+
x*
x1
x0
x/
x.
x5
x4
x3
x2
x9
x8
x7
x6
x=
x<
x;
x:
xA
x@
x?
x>
xE
xD
xC
xB
xI
xH
xG
xF
xJ
0K
1L
xM
1N
1O
1P
0Q
xR
xS
0T
xU
xV
xW
xX
xY
xZ
x[
x\
x]
x^
x_
x`
xa
xb
xc
xd
xe
xf
xg
xh
xi
xj
xk
xl
xm
xn
xo
xp
xq
xr
xs
0w
0v
0u
0t
0{
0z
0y
0x
0!!
0~
0}
0|
0%!
0$!
0#!
0"!
0)!
0(!
0'!
0&!
0-!
0,!
0+!
0*!
01!
00!
0/!
0.!
05!
04!
03!
02!
09!
08!
07!
06!
0=!
0<!
0;!
0:!
0A!
0@!
0?!
0>!
0E!
0D!
0C!
0B!
$end
#122
0R
#455
0U
0V
0e
0o
0p
#457
0Z
0m
#458
0W
0_
0g
0h
#459
0`
0j
#460
0b
0c
#461
0]
0r
#462
0l
0s
#464
0X
#465
0\
#507
0^
#510
0a
#1046
0[
#3102
0@
#3167
0F
#3323
05
#3373
0'
#3397
0B
#3401
0A
#3442
0I
#3443
0E
#3444
0G
#3449
07
#3456
04
#3457
0;
#3465
01
#3467
0,
#3470
0+
#3487
0H
#3529
0.
#3531
0/
#3568
0>
#3614
0C
#3619
0D
#3646
09
#3666
0(
#3667
0&
#3692
00
#3695
0*
#3752
0?
#3763
08
#3764
0:
#3780
0=
#3801
02
#3802
06
#3833
03
#3858
0<
#3866
0)
#3917
0-
#4627
0i
#4903
0n
#4916
0k
#4922
0q
#4956
0Y
#5172
0f
#5179
0d
#5468
0S
#50000
1!
0J
#50989
1Q
#51111
1R
#100000
0!
1J
#100989
0Q
#101111
0R
#150000
1!
0J
#150989
1Q
#151111
1R
#200000
0!
1J
#200989
0Q
#201111
0R
#250000
1!
0J
#250989
1Q
#251111
1R
#300000
0!
1J
#300989
0Q
#301111
0R
#350000
1!
0J
#350989
1Q
#351111
1R
#400000
0!
1J
#400989
0Q
#401111
0R
#450000
1!
0J
#450989
1Q
#451111
1R
#500000
1"
b1 #
b100 $
b100 %
b110 %
b111 %
0!
1J
#500840
1E!
1T
#500842
11!
#500852
1/!
10!
#500862
1#!
#500989
0Q
#501111
0R
#505469
1i
#505755
1n
#505768
1k
#506041
1d
#506308
1S
#550000
1!
0J
#550989
1Q
#551111
1R
#552583
1+!
#552606
1A!
#552621
1!!
1~
1}
#553061
1U
#553076
1o
#553080
1j
#553083
1l
#556040
1;
#556063
1I
#556065
1G
#556071
11
#556108
1H
#600000
b11 #
b101 $
b1111 %
b10 #
b1011 %
b1001 %
b1000 %
0!
1J
#600840
0E!
#600842
1.!
01!
#600850
1D!
#600852
0/!
00!
#600989
0Q
1%!
#601111
0R
#601496
1^
#605469
0i
#605755
0n
#605764
1q
#605768
0k
#606308
0S
#650000
1!
0J
#650989
1Q
#651111
1R
#652583
1-!
1;!
#652606
0A!
19!
1@!
#652621
0!!
1)!
0~
1(!
0}
1'!
1|
#653038
1e
#653041
1_
#653061
1V
0U
#653064
1W
#653076
1p
0o
#653078
1m
#653080
0j
#653082
1r
#653083
0l
#655788
1F
#656032
17
#656063
0I
#656064
1E
#656065
0G
#656071
01
#656108
0H
#656235
1C
#656240
1D
#656298
10
#656363
1=
#656523
1-
#700000
b111 $
b110 $
b11 #
b1001 %
0!
1J
#700840
1E!
#700842
11!
#700989
0Q
1$!
0%!
#701111
0R
#701496
0^
#701499
1a
#705469
1i
#706308
1S
#750000
1!
0J
#750989
1Q
#751111
1R
#752583
1u
0-!
1=!
1,!
#752606
15!
1A!
09!
18!
#752621
1y
1z
1{
1!!
0)!
0(!
0'!
1&!
#753041
0_
#753042
1`
#753043
1b
#753061
0V
1U
#753070
1X
#753076
0p
#753078
0m
#753080
1j
#753083
1s
#755723
1@
#756018
1B
#756022
1A
#756063
1I
#756064
0E
#756071
11
#756073
1,
#756229
19
#756235
0C
#756240
0D
#756363
0=
#756373
1?
#756416
13
#756441
1<
#756472
1)
#756523
0-
#800000
0"
b10 $
b1 #
b1 %
b0 $
b0 #
b0 %
0!
1J
#800840
0E!
0T
#800842
0.!
01!
#800850
0D!
#800862
0#!
#800989
0Q
0$!
#801111
0R
#801499
0a
#805469
0i
#805764
0q
#806041
0d
#806308
0S
#850000
1!
0J
#850989
1Q
#851111
1R
#900000
1"
0!
1J
#900840
1T
#900989
0Q
#901111
0R
#940000
b1000 #
b1000 $
b1001 $
b1101 $
b1010 #
b1 %
0J
#940842
11!
#940850
1D!
#940860
1"!
#940862
1#!
#940979
1B!
#940989
1%!
#941496
1^
#942025
1[
#945469
1i
#946032
1f
#946041
1d
#950000
1!
1J
#950989
1Q
#951111
1R
#952583
1w
1-!
0=!
0,!
1<!
1*!
#952606
14!
05!
0A!
19!
1>!
#952621
1x
0y
0z
0{
1)!
0|
#953041
1g
1_
#953042
0`
#953043
1c
0b
#953061
1V
0U
#953071
1\
#953082
0r
#955723
0@
#955788
0F
#955906
15
#956022
0A
#956064
1E
#956071
01
#956135
1.
#956189
1>
#956229
09
#956272
1(
#956346
18
#956347
1:
#956363
1=
#956373
0?
#956441
0<
#956472
0)
#956523
1-
#960000
b10 #
b101 $
b100 $
b0 $
b0 #
b0 %
0J
#960842
01!
#960850
0D!
#960860
0"!
#960862
0#!
#960979
0B!
#960989
0%!
#961496
0^
#962025
0[
#965469
0i
#966032
0f
#966041
0d
#1000000
0!
1J
#1000989
0Q
#1001111
0R
#1040000
b10 %
b10 $
b1 #
b1001 #
b1010 $
b1110 $
b1011 #
0J
#1040840
1E!
#1040850
1D!
#1040852
10!
#1040860
1"!
#1040862
1#!
#1040979
1B!
#1040989
1$!
#1041499
1a
#1042025
1[
#1045768
1k
#1046032
1f
#1046041
1d
#1046308
1S
#1050000
1!
1J
#1050989
1Q
#1051111
1R
#1052583
1v
0w
0-!
1=!
1,!
0<!
1:!
#1052606
15!
1A!
09!
16!
#1052621
1{
0!!
1~
0&!
#1053041
1h
0_
#1053042
1`
#1053043
0c
1b
#1053061
0V
1U
#1053067
1]
#1053080
0j
#1053083
0s
1l
#1055906
05
#1056018
0B
#1056022
1A
#1056039
14
#1056063
0I
#1056071
11
#1056108
1H
#1056229
19
#1056301
1*
#1056346
08
#1056363
0=
#1056385
16
#1056441
1<
#1056472
1)
#1056523
0-
#1060000
b0 %
b1100 $
b1010 #
b10 #
b100 $
b0 $
b0 #
0J
#1060840
0E!
#1060850
0D!
#1060852
00!
#1060860
0"!
#1060862
0#!
#1060979
0B!
#1060989
0$!
#1061499
0a
#1062025
0[
#1065768
0k
#1066032
0f
#1066041
0d
#1066308
0S
#1100000
0!
1J
#1100989
0Q
#1101111
0R
#1140000
b100 #
b1 $
b1 %
b11 %
b11 $
b1100 #
b1011 $
b1111 $
0J
#1140842
11!
#1140852
10!
#1140860
1C!
1"!
#1140862
1#!
#1140979
1B!
#1140989
1$!
1%!
#1141496
1^
#1141499
1a
#1142025
1[
#1145469
1i
#1145768
1k
#1145816
1Y
#1146032
1f
#1146041
1d
#1150000
1!
1J
#1150989
1Q
#1151111
1R
#1152583
1t
0v
1w
1-!
0=!
1<!
#1152606
12!
05!
0A!
19!
0@!
1?!
#1152621
0x
1!!
0)!
1(!
#1153041
1_
#1153042
0`
#1153043
1c
#1153061
1V
0U
#1153063
1Z
#1153064
0W
#1153078
1m
#1153080
1j
#1155906
15
#1156039
04
#1156063
1I
#1156064
0E
#1156071
01
#1156137
1/
#1156189
0>
#1156229
09
#1156240
1D
#1156273
1&
#1156298
00
#1156346
18
#1156363
1=
#1156384
12
#1156472
0)
#1156523
1-
#1160000
b1000 #
b1110 $
b10 %
b0 %
b1100 $
b0 #
b100 $
b0 $
0J
#1160842
01!
#1160852
00!
#1160860
0C!
0"!
#1160862
0#!
#1160979
0B!
#1160989
0$!
0%!
#1161496
0^
#1161499
0a
#1162025
0[
#1165469
0i
#1165768
0k
#1165816
0Y
#1166032
0f
#1166041
0d
#1200000
0"
0!
1J
#1200840
0T
#1200989
0Q
#1201111
0R
#1250000
1!
0J
#1250989
1Q
#1251111
1R
#1300000
0!
1J
#1300989
0Q
#1301111
0R
#1350000
1!
0J
#1350989
1Q
#1351111
1R
#1400000
0!
1J
#1400989
0Q
#1401111
0R
#1450000
1!
0J
#1450989
1Q
#1451111
1R
#1500000
0!
1J
#1500989
0Q
#1501111
0R
#1550000
1!
0J
#1550989
1Q
#1551111
1R
#1600000
0!
1J
#1600989
0Q
#1601111
0R
#1650000
1!
0J
#1650989
1Q
#1651111
1R
#1700000
0!
1J
#1700989
0Q
#1701111
0R
#1750000
1!
0J
#1750989
1Q
#1751111
1R
#1800000
0!
1J
#1800989
0Q
#1801111
0R
#1850000
1!
0J
#1850989
1Q
#1851111
1R
#1900000
0!
1J
#1900989
0Q
#1901111
0R
#1950000
1!
0J
#1950989
1Q
