simulation/qsim/HillCipher.msim.vcd
$comment
	File created using the following command:
		vcd file HillCipher.msim.vcd -direction
$end
$date
	Tue Jan 19 11:15:40 2016
$end
$version
	ModelSim Version 10.1d
$end
$timescale
	1ps
$end
$scope module key_loader_vlg_vec_tst $end
$var reg 1 ! clk $end
$var reg 1 " load_key $end
$var reg 4 # p1 [3:0] $end
$var reg 4 $ p2 [3:0] $end
$var reg 4 % p3 [3:0] $end
$var wire 1 & k11 [3] $end
$var wire 1 ' k11 [2] $end
$var wire 1 ( k11 [1] $end
$var wire 1 ) k11 [0] $end
$var wire 1 * k12 [3] $end
$var wire 1 + k12 [2] $end
$var wire 1 , k12 [1] $end
$var wire 1 - k12 [0] $end
$var wire 1 . k13 [3] $end
$var wire 1 / k13 [2] $end
$var wire 1 0 k13 [1] $end
$var wire 1 1 k13 [0] $end
$var wire 1 2 k21 [3] $end
$var wire 1 3 k21 [2] $end
$var wire 1 4 k21 [1] $end
$var wire 1 5 k21 [0] $end
$var wire 1 6 k22 [3] $end
$var wire 1 7 k22 [2] $end
$var wire 1 8 k22 [1] $end
$var wire 1 9 k22 [0] $end
$var wire 1 : k23 [3] $end
$var wire 1 ; k23 [2] $end
$var wire 1 < k23 [1] $end
$var wire 1 = k23 [0] $end
$var wire 1 > k31 [3] $end
$var wire 1 ? k31 [2] $end
$var wire 1 @ k31 [1] $end
$var wire 1 A k31 [0] $end
$var wire 1 B k32 [3] $end
$var wire 1 C k32 [2] $end
$var wire 1 D k32 [1] $end
$var wire 1 E k32 [0] $end
$var wire 1 F k33 [3] $end
$var wire 1 G k33 [2] $end
$var wire 1 H k33 [1] $end
$var wire 1 I k33 [0] $end
$var wire 1 J sampler $end
$scope module i1 $end
$var wire 1 K gnd $end
$var wire 1 L vcc $end
$var wire 1 M unknown $end
$var tri1 1 N devclrn $end
$var tri1 1 O devpor $end
$var tri1 1 P devoe $end
$var wire 1 Q clk~combout $end
$var wire 1 R clk~clkctrl_outclk $end
$var wire 1 S k11[0]~reg0feeder_combout $end
$var wire 1 T k13[0]~1_combout $end
$var wire 1 U Mux12~0_combout $end
$var wire 1 V load_key~combout $end
$var wire 1 W k11[0]~0_combout $end
$var wire 1 X k11[0]~reg0_regout $end
$var wire 1 Y k11[1]~reg0feeder_combout $end
$var wire 1 Z k11[1]~reg0_regout $end
$var wire 1 [ k11[2]~reg0feeder_combout $end
$var wire 1 \ k11[2]~reg0_regout $end
$var wire 1 ] k11[3]~reg0feeder_combout $end
$var wire 1 ^ k11[3]~reg0_regout $end
$var wire 1 _ k12[0]~reg0feeder_combout $end
$var wire 1 ` k12[0]~0_combout $end
$var wire 1 a k12[0]~reg0_regout $end
$var wire 1 b k12[1]~reg0_regout $end
$var wire 1 c k12[2]~reg0feeder_combout $end
$var wire 1 d k12[2]~reg0_regout $end
$var wire 1 e k12[3]~reg0feeder_combout $end
$var wire 1 f k12[3]~reg0_regout $end
$var wire 1 g k13[0]~reg0feeder_combout $end
$var wire 1 h k13[0]~0_combout $end
$var wire 1 i k13[0]~reg0_regout $end
$var wire 1 j k13[1]~reg0_regout $end
$var wire 1 k k13[2]~reg0feeder_combout $end
$var wire 1 l k13[2]~reg0_regout $end
$var wire 1 m k13[3]~reg0feeder_combout $end
$var wire 1 n k13[3]~reg0_regout $end
$var wire 1 o k21[0]~reg0feeder_combout $end
$var wire 1 p k21[0]~reg0_regout $end
$var wire 1 q k21[1]~reg0feeder_combout $end
$var wire 1 r k21[1]~reg0_regout $end
$var wire 1 s k21[2]~reg0feeder_combout $end
$var wire 1 t k21[2]~reg0_regout $end
$var wire 1 u k21[3]~reg0feeder_combout $end
$var wire 1 v k21[3]~reg0_regout $end
$var wire 1 w k22[0]~reg0feeder_combout $end
$var wire 1 x k22[0]~reg0_regout $end
$var wire 1 y k22[1]~reg0feeder_combout $end
$var wire 1 z k22[1]~reg0_regout $end
$var wire 1 { k22[2]~reg0feeder_combout $end
$var wire 1 | k22[2]~reg0_regout $end
$var wire 1 } k22[3]~reg0feeder_combout $end
$var wire 1 ~ k22[3]~reg0_regout $end
$var wire 1 !! k23[0]~reg0feeder_combout $end
$var wire 1 "! k23[0]~reg0_regout $end
$var wire 1 #! k23[1]~reg0feeder_combout $end
$var wire 1 $! k23[1]~reg0_regout $end
$var wire 1 %! k23[2]~reg0feeder_combout $end
$var wire 1 &! k23[2]~reg0_regout $end
$var wire 1 '! k23[3]~reg0feeder_combout $end
$var wire 1 (! k23[3]~reg0_regout $end
$var wire 1 )! k31[0]~reg0feeder_combout $end
$var wire 1 *! k31[0]~reg0_regout $end
$var wire 1 +! k31[1]~reg0feeder_combout $end
$var wire 1 ,! k31[1]~reg0_regout $end
$var wire 1 -! k31[2]~reg0feeder_combout $end
$var wire 1 .! k31[2]~reg0_regout $end
$var wire 1 /! k31[3]~reg0feeder_combout $end
$var wire 1 0! k31[3]~reg0_regout $end
$var wire 1 1! k32[0]~reg0_regout $end
$var wire 1 2! k32[1]~reg0_regout $end
$var wire 1 3! k32[2]~reg0_regout $end
$var wire 1 4! k32[3]~reg0feeder_combout $end
$var wire 1 5! k32[3]~reg0_regout $end
$var wire 1 6! k33[0]~reg0_regout $end
$var wire 1 7! k33[1]~reg0_regout $end
$var wire 1 8! k33[2]~reg0_regout $end
$var wire 1 9! k33[3]~reg0feeder_combout $end
$var wire 1 :! k33[3]~reg0_regout $end
$var wire 1 ;! state [1] $end
$var wire 1 <! state [0] $end
$var wire 1 =! p3~combout [3] $end
$var wire 1 >! p3~combout [2] $end
$var wire 1 ?! p3~combout [1] $end
$var wire 1 @! p3~combout [0] $end
$var wire 1 A! p1~combout [3] $end
$var wire 1 B! p1~combout [2] $end
$var wire 1 C! p1~combout [1] $end
$var wire 1 D! p1~combout [0] $end
$var wire 1 E! p2~combout [3] $end
$var wire 1 F! p2~combout [2] $end
$var wire 1 G! p2~combout [1] $end
$var wire 1 H! p2~combout [0] $end
$upscope $end
$upscope $end
$enddefinitions $end
#0
$dumpvars
0!
0"
b0 #
b0 $
b0 %
x)
x(
x'
x&
x-
x,
x+
x*
x1
x0
x/
x.
x5
x4
x3
x2
x9
x8
x7
x6
x=
x<
x;
x:
xA
x@
x?
x>
xE
xD
xC
xB
xI
xH
xG
xF
xJ
0K
1L
xM
1N
1O
1P
0Q
xR
xS
xT
xU
0V
xW
0X
xY
0Z
x[
0\
x]
0^
x_
x`
0a
0b
xc
0d
xe
0f
xg
xh
0i
0j
xk
0l
xm
0n
xo
0p
xq
0r
xs
0t
xu
0v
xw
0x
xy
0z
x{
0|
x}
0~
x!!
0"!
x#!
0$!
x%!
0&!
x'!
0(!
x)!
0*!
x+!
0,!
x-!
0.!
x/!
00!
01!
02!
03!
x4!
05!
06!
07!
08!
x9!
0:!
0<!
0;!
0@!
0?!
0>!
0=!
0D!
0C!
0B!
0A!
0H!
0G!
0F!
0E!
$end
#122
0R
#460
0h
#603
0`
#648
0U
#802
0q
#1032
0]
#1033
0o
#1039
0m
#1042
0#!
#1043
0y
#1044
0e
#1048
0w
#1050
0!!
#3351
0;
#3516
0)
#3522
01
#3527
0:
07
#3535
0'
#3616
0*
#3680
00
#3725
0?
#3746
02
#3748
05
#3801
0-
#3811
0<
#3860
0=
#3864
08
#3881
06
#3959
0/
#3962
0+
#3963
0>
#3967
03
#3972
0.
#3974
0G
#3982
0C
#3985
0E
#3989
04
#3998
09
#4127
0,
#4175
0I
#4181
0@
#4182
0(
#4210
0A
#4250
0D
#4627
0F
#4659
0B
#4693
0H
#4858
0[
#4867
0c
0k
#4954
0&
#4979
0/!
#4983
04!
09!
#4985
0-!
#5148
0s
#5151
0}
#5154
0'!
#5160
0{
#5164
0%!
#5234
0u
#5464
0Y
#5693
0)!
#5696
0_
#5697
0g
#5716
0+!
#5734
0T
#5735
0W
#5779
0S
#50000
1!
0J
#50989
1Q
#51111
1R
#100000
0!
1J
#100989
0Q
#101111
0R
#150000
1!
0J
#150989
1Q
#151111
1R
#200000
0!
1J
#200989
0Q
#201111
0R
#250000
1!
0J
#250989
1Q
#251111
1R
#300000
0!
1J
#300989
0Q
#301111
0R
#350000
1!
0J
#350989
1Q
#351111
1R
#400000
0!
1J
#400989
0Q
#401111
0R
#450000
1!
0J
#450989
1Q
#451111
1R
#500000
1"
b1 #
b100 $
b100 %
b110 %
b111 %
0!
1J
#500830
1V
#500850
1D!
1?!
1@!
#500860
1>!
#500862
1F!
#500989
0Q
#501111
0R
#505845
1-!
#506010
1s
#506022
1{
#506026
1%!
#506543
1)!
#506546
1_
#506547
1g
#506564
1T
#506565
1W
#506566
1+!
#506629
1S
#550000
1!
0J
#550989
1Q
#551111
1R
#552600
1.!
1,!
1*!
1t
1X
1<!
#552923
0T
#553202
0W
#553203
1`
#553248
1U
#556116
1)
#556325
1?
#556567
13
#556781
1@
#556810
1A
#600000
b11 #
b101 $
b1111 %
b10 #
b1011 %
b1001 %
b1000 %
0!
1J
#600850
1C!
0D!
1=!
0?!
0@!
#600860
0>!
#600989
0Q
1H!
#601111
0R
#602022
1o
#602037
1w
#602039
1!!
#605829
1/!
#605833
14!
19!
#605845
0-!
#606314
1Y
#606543
0)!
#606546
0_
#606547
0g
#606566
0+!
#606629
0S
#650000
1!
0J
#650989
1Q
#651111
1R
#652599
1|
1x
1b
#652600
0<!
1;!
#652601
15!
#652923
0U
1T
#653064
0`
#653204
1h
#653248
1U
#656126
17
#656597
19
#656726
1,
#657260
1B
#700000
b111 $
b110 $
b11 #
b1001 %
0!
1J
#700850
1D!
1@!
#700989
0Q
1G!
0H!
#701111
0R
#701791
1q
#702022
0o
#702031
1#!
#702032
1y
#702037
0w
#702039
0!!
#706543
1)!
#706546
1_
#706547
1g
#706629
1S
#750000
1!
0J
#750989
1Q
#751111
1R
#752599
1&!
1$!
1j
1i
#752600
1<!
#752601
1:!
16!
#752923
0T
#753204
0h
#753248
0U
#755950
1;
#756121
11
#756279
10
#756410
1<
#756776
1I
#757228
1F
#800000
0"
b10 $
b1 #
b1 %
b0 $
b0 #
b0 %
0!
1J
#800830
0V
#800850
0C!
0D!
0=!
0@!
#800862
0F!
#800989
0Q
0G!
#801111
0R
#801791
0q
#802031
0#!
#802032
0y
#805829
0/!
#805833
04!
09!
#806010
0s
#806022
0{
#806026
0%!
#806314
0Y
#806543
0)!
#806546
0_
#806547
0g
#806629
0S
#850000
1!
0J
#850989
1Q
#851111
1R
#852600
0<!
0;!
#852923
1U
#853248
0U
#900000
1"
0!
1J
#900830
1V
#900989
0Q
#901111
0R
#906564
1T
#906565
1W
#940000
b1000 #
b1000 $
b1001 $
b1101 $
b1010 #
b1 %
0J
#940850
1C!
1@!
#940862
1E!
1F!
#940979
1A!
#940989
1H!
#942011
1]
#942018
1m
#942022
1o
#942023
1e
#942037
1w
#942039
1!!
#946010
1s
#946013
1}
#946016
1'!
#946022
1{
#946026
1%!
#946096
1u
#946314
1Y
#946543
1)!
#950000
1!
1J
#950989
1Q
#951111
1R
#952600
0.!
0,!
1v
1p
1^
1Z
0X
1<!
#952923
0T
#953202
0W
#953203
1`
#953248
1U
#956116
0)
#956325
0?
#956346
12
#956348
15
#956781
0@
#956782
1(
#957554
1&
#960000
b10 #
b101 $
b100 $
b0 $
b0 #
b0 %
0J
#960850
0C!
0@!
#960862
0E!
0F!
#960979
0A!
#960989
0H!
#962011
0]
#962018
0m
#962022
0o
#962023
0e
#962037
0w
#962039
0!!
#966010
0s
#966013
0}
#966016
0'!
#966022
0{
#966026
0%!
#966096
0u
#966314
0Y
#966543
0)!
#1000000
0!
1J
#1000989
0Q
#1001111
0R
#1040000
b10 %
b10 $
b1 #
b1001 #
b1010 $
b1110 $
b1011 #
0J
#1040850
1?!
1C!
1D!
#1040862
1E!
1F!
#1040979
1A!
#1040989
1G!
#1041791
1q
#1042011
1]
#1042018
1m
#1042023
1e
#1042031
1#!
#1042032
1y
#1046010
1s
#1046013
1}
#1046016
1'!
#1046022
1{
#1046026
1%!
#1046096
1u
#1046314
1Y
#1046546
1_
#1046547
1g
#1046566
1+!
#1046629
1S
#1050000
1!
1J
#1050989
1Q
#1051111
1R
#1052599
1~
1z
0x
1f
1a
#1052600
0<!
1;!
#1052601
05!
12!
#1052923
0U
1T
#1053064
0`
#1053204
1h
#1053248
1U
#1056215
1*
#1056400
1-
#1056463
18
#1056480
16
#1056597
09
#1056851
1D
#1057260
0B
#1060000
b0 %
b1100 $
b1010 #
b10 #
b100 $
b0 $
b0 #
0J
#1060850
0?!
0C!
0D!
#1060862
0E!
0F!
#1060979
0A!
#1060989
0G!
#1061791
0q
#1062011
0]
#1062018
0m
#1062023
0e
#1062031
0#!
#1062032
0y
#1066010
0s
#1066013
0}
#1066016
0'!
#1066022
0{
#1066026
0%!
#1066096
0u
#1066314
0Y
#1066546
0_
#1066547
0g
#1066566
0+!
#1066629
0S
#1100000
0!
1J
#1100989
0Q
#1101111
0R
#1140000
b100 #
b1 $
b1 %
b11 %
b11 $
b1100 #
b1011 $
b1111 $
0J
#1140850
1?!
1@!
#1140862
1B!
1E!
1F!
#1140979
1A!
#1140989
1G!
1H!
#1141791
1q
#1142011
1]
#1142018
1m
#1142022
1o
#1142023
1e
#1142031
1#!
#1142032
1y
#1142037
1w
#1142039
1!!
#1145720
1[
#1145729
1c
1k
#1146010
1s
#1146013
1}
#1146016
1'!
#1146022
1{
#1146026
1%!
#1146096
1u
#1146543
1)!
#1146566
1+!
#1150000
1!
1J
#1150989
1Q
#1151111
1R
#1152599
1(!
1"!
1n
1l
0j
0i
#1152600
1<!
#1152601
0:!
17!
#1152923
0T
#1153204
0h
#1153248
0U
#1156121
01
#1156126
1:
#1156279
00
#1156459
1=
#1156558
1/
#1156571
1.
#1157228
0F
#1157294
1H
#1160000
b1000 #
b1110 $
b10 %
b0 %
b1100 $
b0 #
b100 $
b0 $
0J
#1160850
0?!
0@!
#1160862
0B!
0E!
0F!
#1160979
0A!
#1160989
0G!
0H!
#1161791
0q
#1162011
0]
#1162018
0m
#1162022
0o
#1162023
0e
#1162031
0#!
#1162032
0y
#1162037
0w
#1162039
0!!
#1165720
0[
#1165729
0c
0k
#1166010
0s
#1166013
0}
#1166016
0'!
#1166022
0{
#1166026
0%!
#1166096
0u
#1166543
0)!
#1166566
0+!
#1200000
0"
0!
1J
#1200830
0V
#1200989
0Q
#1201111
0R
#1250000
1!
0J
#1250989
1Q
#1251111
1R
#1252600
0<!
0;!
#1252923
1U
#1253248
0U
#1300000
0!
1J
#1300989
0Q
#1301111
0R
#1350000
1!
0J
#1350989
1Q
#1351111
1R
#1400000
0!
1J
#1400989
0Q
#1401111
0R
#1450000
1!
0J
#1450989
1Q
#1451111
1R
#1500000
0!
1J
#1500989
0Q
#1501111
0R
#1550000
1!
0J
#1550989
1Q
#1551111
1R
#1600000
0!
1J
#1600989
0Q
#1601111
0R
#1650000
1!
0J
#1650989
1Q
#1651111
1R
#1700000
0!
1J
#1700989
0Q
#1701111
0R
#1750000
1!
0J
#1750989
1Q
#1751111
1R
#1800000
0!
1J
#1800989
0Q
#1801111
0R
#1850000
1!
0J
#1850989
1Q
#1851111
1R
#1900000
0!
1J
#1900989
0Q
#1901111
0R
#1950000
1!
0J
#1950989
1Q
